891
new kernel: 4.00312E+00
884
new kernel: 4.00076E+00
886
new kernel: 4.00061E+00
886
new kernel: 4.00040E+00
883
new kernel: 4.00259E+00
885
new kernel: 4.00110E+00
890
new kernel: 4.00143E+00
883
new kernel: 4.00024E+00
887
new kernel: 4.00343E+00
883
new kernel: 4.00440E+00
