141 
new kernel: 4.01146E+00
140 
new kernel: 4.00385E+00
141 
new kernel: 4.01329E+00
134 
new kernel: 4.00356E+00
139 
new kernel: 4.02202E+00
138 
new kernel: 4.00087E+00
139 
new kernel: 4.00883E+00
140 
new kernel: 4.02058E+00
138 
new kernel: 4.01821E+00
139 
new kernel: 4.00036E+00
