906
 
new kernel: 4.00235E+00
965
 
new kernel: 4.00133E+00
929
 
new kernel: 4.00205E+00
929
 
new kernel: 4.00083E+00
939
 
new kernel: 4.00381E+00
912
 
new kernel: 4.00223E+00
958
 
new kernel: 4.00108E+00
939
 
new kernel: 4.00245E+00
913
 
new kernel: 4.00292E+00
953
 
new kernel: 4.00128E+00
