BabelStream
Version: 3.3
Implementation: CUDA
Running kernels 100 times
Precision: double
Array size: 268.4 MB (=0.3 GB)
Total size: 805.3 MB (=0.8 GB)
==90428== NVPROF is profiling process 90428, command: ./cuda-stream
Using CUDA device Tesla V100-SXM2-16GB
Driver: 9020
Function    MBytes/sec  Min (sec)   Max         Average     
Copy        62987.512   0.00852     0.00932     0.00855     
Mul         62960.529   0.00853     0.00915     0.00856     
Add         91178.364   0.00883     0.00921     0.00886     
Triad       91133.222   0.00884     0.00906     0.00885     
Dot         63069.625   0.00851     0.00943     0.00855     
==90428== Profiling application: ./cuda-stream
==90428== Profiling result:
==90428== Metric result:
Invocations                               Metric Name                        Metric Description         Min         Max         Avg
Device "Tesla V100-SXM2-16GB (0)"
    Kernel: void mul_kernel<double>(double*, double const *)
        100                     dram_write_throughput            Device Memory Write Throughput  375.61GB/s  376.55GB/s  376.11GB/s
        100                      dram_read_throughput             Device Memory Read Throughput  375.61GB/s  376.59GB/s  376.14GB/s
        100                          dram_utilization                 Device Memory Utilization    High (9)    Max (10)    High (9)
    Kernel: void triad_kernel<double>(double*, double const *, double const *)
        100                     dram_write_throughput            Device Memory Write Throughput  262.32GB/s  262.84GB/s  262.65GB/s
        100                      dram_read_throughput             Device Memory Read Throughput  524.67GB/s  525.71GB/s  525.33GB/s
        100                          dram_utilization                 Device Memory Utilization    Max (10)    Max (10)    Max (10)
    Kernel: void init_kernel<double>(double*, double*, double*, double, double, double)
          1                     dram_write_throughput            Device Memory Write Throughput  831.63GB/s  831.63GB/s  831.63GB/s
          1                      dram_read_throughput             Device Memory Read Throughput  8.1312MB/s  8.1312MB/s  8.1312MB/s
          1                          dram_utilization                 Device Memory Utilization    Max (10)    Max (10)    Max (10)
    Kernel: void add_kernel<double>(double const *, double const *, double*)
        100                     dram_write_throughput            Device Memory Write Throughput  262.30GB/s  262.72GB/s  262.59GB/s
        100                      dram_read_throughput             Device Memory Read Throughput  524.55GB/s  525.46GB/s  525.13GB/s
        100                          dram_utilization                 Device Memory Utilization    Max (10)    Max (10)    Max (10)
    Kernel: void copy_kernel<double>(double const *, double*)
        100                     dram_write_throughput            Device Memory Write Throughput  373.80GB/s  376.60GB/s  374.35GB/s
        100                      dram_read_throughput             Device Memory Read Throughput  376.04GB/s  379.31GB/s  378.87GB/s
        100                          dram_utilization                 Device Memory Utilization    High (9)    Max (10)    High (9)
    Kernel: void dot_kernel<double>(double const *, double const *, double*, unsigned int)
        100                     dram_write_throughput            Device Memory Write Throughput  4.7758GB/s  4.8994GB/s  4.8539GB/s
        100                      dram_read_throughput             Device Memory Read Throughput  807.55GB/s  819.23GB/s  814.35GB/s
        100                          dram_utilization                 Device Memory Utilization    Max (10)    Max (10)    Max (10)
