
OPENMP DISPLAY ENVIRONMENT BEGIN
  _OPENMP = '201511'
  OMP_DYNAMIC = 'FALSE'
  OMP_NESTED = 'FALSE'
  OMP_NUM_THREADS = '40'
  OMP_SCHEDULE = 'DYNAMIC'
  OMP_PROC_BIND = 'SPREAD'
  OMP_PLACES = '{0:4},{4:4},{8:4},{12:4},{16:4},{20:4},{24:4},{28:4},{32:4},{36:4},{40:4},{44:4},{48:4},{52:4},{56:4},{60:4},{64:4},{68:4},{72:4},{76:4},{80:4},{84:4},{88:4},{92:4},{96:4},{100:4},{104:4},{108:4},{112:4},{116:4},{120:4},{124:4},{128:4},{132:4},{136:4},{140:4},{144:4},{148:4},{152:4},{156:4}'
  OMP_STACKSIZE = '0'
  OMP_WAIT_POLICY = 'PASSIVE'
  OMP_THREAD_LIMIT = '4294967295'
  OMP_MAX_ACTIVE_LEVELS = '2147483647'
  OMP_CANCELLATION = 'FALSE'
  OMP_DEFAULT_DEVICE = '0'
  OMP_MAX_TASK_PRIORITY = '0'
OPENMP DISPLAY ENVIRONMENT END
==94966== NVPROF is profiling process 94966, command: /home/dneillasanza/truchas/truchas-kernels/build_power9_gcc/src/int-norm/int-norm-driver /home/dneillasanza/truchas/truchas-kernels/meshes/puck-cast.exo new
==94966== Profiling application: /home/dneillasanza/truchas/truchas-kernels/build_power9_gcc/src/int-norm/int-norm-driver /home/dneillasanza/truchas/truchas-kernels/meshes/puck-cast.exo new
595351 cells, 684633 nodes, 1873113 faces
144 iterations of the new kernel

mesh initialization: 1.77054E+01
vof field initialization: 4.24358E-03
new kernel: 4.01676E+00
==94966== Profiling result:
==94966== Metric result:
Invocations                               Metric Name                        Metric Description         Min         Max         Avg
Device "Tesla V100-SXM2-16GB (0)"
    Kernel: calculate_grad(double*, double*, double*, double*, double*, int*, int, int)
        145                     dram_write_throughput            Device Memory Write Throughput  30.369GB/s  32.590GB/s  31.395GB/s
        145                      dram_read_throughput             Device Memory Read Throughput  713.38GB/s  725.13GB/s  718.92GB/s
        145                          dram_utilization                 Device Memory Utilization    High (9)    Max (10)    High (9)
    Kernel: face_avg(double*, double*, int*, int, int)
        145                     dram_write_throughput            Device Memory Write Throughput  126.80GB/s  130.66GB/s  128.34GB/s
        145                      dram_read_throughput             Device Memory Read Throughput  328.02GB/s  336.54GB/s  331.68GB/s
        145                          dram_utilization                 Device Memory Utilization     Mid (6)     Mid (6)     Mid (6)
    Kernel: node_centered_avg(double*, double*, double*, int*, int, int)
        145                     dram_write_throughput            Device Memory Write Throughput  89.041GB/s  116.69GB/s  114.71GB/s
        145                      dram_read_throughput             Device Memory Read Throughput  441.25GB/s  460.33GB/s  447.30GB/s
        145                          dram_utilization                 Device Memory Utilization    High (7)    High (7)    High (7)
