861
 
new kernel: 4.00280E+00
853
 
new kernel: 4.00440E+00
862
 
new kernel: 4.00154E+00
858
 
new kernel: 4.00193E+00
853
 
new kernel: 4.00053E+00
852
 
new kernel: 4.00385E+00
859
 
new kernel: 4.00126E+00
853
 
new kernel: 4.00309E+00
858
 
new kernel: 4.00327E+00
857
 
new kernel: 4.00316E+00
