1
72
new kernel: 4.03461E+00
1
72
new kernel: 4.04585E+00
1
64
new kernel: 4.05084E+00
1
65
new kernel: 4.02839E+00
1
67
new kernel: 4.03653E+00
1
66
new kernel: 4.00860E+00
1
67
new kernel: 4.02059E+00
1
72
new kernel: 4.03397E+00
1
63
new kernel: 4.00729E+00
1
65
new kernel: 4.03956E+00
2
127
new kernel: 4.00544E+00
2
129
new kernel: 4.01798E+00
2
136
new kernel: 4.01577E+00
2
139
new kernel: 4.02091E+00
2
137
new kernel: 4.02444E+00
2
138
new kernel: 4.01011E+00
2
127
new kernel: 4.02566E+00
2
128
new kernel: 4.00385E+00
2
130
new kernel: 4.00502E+00
2
132
new kernel: 4.01046E+00
9
569
new kernel: 4.00253E+00
9
590
new kernel: 4.00094E+00
9
590
new kernel: 4.00249E+00
9
590
new kernel: 4.00518E+00
9
579
new kernel: 4.00137E+00
9
599
new kernel: 4.00571E+00
9
602
new kernel: 4.00230E+00
9
568
new kernel: 4.00194E+00
9
569
new kernel: 4.00490E+00
9
551
new kernel: 4.00636E+00
18
1050
new kernel: 4.00379E+00
18
1034
new kernel: 4.00241E+00
18
1061
new kernel: 4.00351E+00
18
1024
new kernel: 4.00236E+00
18
1044
new kernel: 4.00050E+00
18
1031
new kernel: 4.00110E+00
18
1041
new kernel: 4.00309E+00
18
1030
new kernel: 4.00297E+00
18
1017
new kernel: 4.00099E+00
18
1030
new kernel: 4.00360E+00
36
1986
new kernel: 4.00183E+00
36
1882
new kernel: 4.00026E+00
36
1942
new kernel: 4.00193E+00
36
1964
new kernel: 4.00196E+00
36
1935
new kernel: 4.00015E+00
36
1889
new kernel: 4.00166E+00
36
1891
new kernel: 4.00030E+00
36
1893
new kernel: 4.00148E+00
36
1923
new kernel: 4.00143E+00
36
1882
new kernel: 4.00041E+00
72
3212
new kernel: 4.00058E+00
72
3164
new kernel: 4.00065E+00
72
3277
new kernel: 4.00070E+00
72
3262
new kernel: 4.00040E+00
72
3226
new kernel: 4.00097E+00
72
3236
new kernel: 4.00030E+00
72
3330
new kernel: 4.00081E+00
72
3158
new kernel: 4.00063E+00
72
3212
new kernel: 4.00020E+00
72
3271
new kernel: 4.00143E+00
90
2570
new kernel: 4.00092E+00
90
2568
new kernel: 4.00028E+00
90
2574
new kernel: 4.00047E+00
90
2571
new kernel: 4.00117E+00
90
2556
new kernel: 4.00052E+00
90
2591
new kernel: 4.00164E+00
90
2553
new kernel: 4.00288E+00
90
2526
new kernel: 4.00045E+00
90
2538
new kernel: 4.00108E+00
90
2568
new kernel: 4.00086E+00
108
2919
new kernel: 4.00062E+00
108
2928
new kernel: 4.00122E+00
108
2913
new kernel: 4.00121E+00
108
2931
new kernel: 4.00047E+00
108
2919
new kernel: 4.00070E+00
108
2907
new kernel: 4.00047E+00
108
2820
new kernel: 4.00118E+00
108
2912
new kernel: 4.00036E+00
108
2854
new kernel: 4.00131E+00
108
2950
new kernel: 4.00150E+00
126
2297
new kernel: 4.00048E+00
126
2170
new kernel: 4.00178E+00
126
2373
new kernel: 4.00063E+00
126
2156
new kernel: 4.00195E+00
126
2161
new kernel: 4.00166E+00
126
2262
new kernel: 4.00082E+00
126
2255
new kernel: 4.00043E+00
126
2252
new kernel: 4.00060E+00
126
2194
new kernel: 4.00051E+00
126
2211
new kernel: 4.00081E+00
144
3317
new kernel: 4.00066E+00
144
3343
new kernel: 4.00141E+00
144
3369
new kernel: 4.00078E+00
144
3254
new kernel: 4.00115E+00
144
3295
new kernel: 4.00094E+00
144
3343
new kernel: 4.00112E+00
144
3398
new kernel: 4.00044E+00
144
3293
new kernel: 4.00112E+00
144
3267
new kernel: 4.00059E+00
144
3244
new kernel: 4.00144E+00
