1
15
new kernel: 4.01991E+00
1
15
new kernel: 4.00133E+00
1
15
new kernel: 4.00566E+00
1
16
new kernel: 4.25714E+00
1
15
new kernel: 4.01141E+00
1
15
new kernel: 4.01159E+00
1
15
new kernel: 4.02526E+00
1
15
new kernel: 4.02503E+00
1
15
new kernel: 4.01415E+00
1
15
new kernel: 4.00219E+00
2
28
new kernel: 4.01994E+00
2
28
new kernel: 4.00456E+00
2
28
new kernel: 4.00151E+00
2
29
new kernel: 4.13877E+00
2
28
new kernel: 4.00105E+00
2
28
new kernel: 4.01358E+00
2
29
new kernel: 4.13205E+00
2
28
new kernel: 4.00693E+00
2
28
new kernel: 4.00441E+00
2
28
new kernel: 4.01298E+00
4
56
new kernel: 4.02767E+00
4
56
new kernel: 4.01482E+00
4
56
new kernel: 4.01646E+00
4
56
new kernel: 4.01779E+00
4
56
new kernel: 4.00833E+00
4
56
new kernel: 4.02365E+00
4
56
new kernel: 4.02628E+00
4
56
new kernel: 4.02216E+00
4
56
new kernel: 4.02229E+00
4
56
new kernel: 4.02410E+00
8
111
new kernel: 4.03534E+00
8
111
new kernel: 4.03274E+00
8
111
new kernel: 4.03315E+00
8
111
new kernel: 4.03220E+00
8
110
new kernel: 4.00188E+00
8
110
new kernel: 4.00584E+00
8
110
new kernel: 4.00912E+00
8
110
new kernel: 4.00831E+00
8
111
new kernel: 4.03252E+00
8
111
new kernel: 4.03913E+00
16
216
new kernel: 4.01613E+00
16
215
new kernel: 4.01073E+00
16
215
new kernel: 4.00337E+00
16
215
new kernel: 4.00492E+00
16
216
new kernel: 4.01360E+00
16
215
new kernel: 4.01080E+00
16
215
new kernel: 4.00366E+00
16
215
new kernel: 4.01135E+00
16
215
new kernel: 4.01137E+00
16
215
new kernel: 4.01324E+00
17
228
new kernel: 4.01396E+00
17
227
new kernel: 4.00226E+00
17
228
new kernel: 4.01357E+00
17
228
new kernel: 4.00944E+00
17
228
new kernel: 4.01236E+00
17
227
new kernel: 4.00549E+00
17
228
new kernel: 4.01103E+00
17
228
new kernel: 4.01592E+00
17
227
new kernel: 4.00479E+00
17
228
new kernel: 4.01733E+00
24
312
new kernel: 4.00065E+00
24
312
new kernel: 4.00488E+00
24
313
new kernel: 4.00526E+00
24
313
new kernel: 4.00654E+00
24
313
new kernel: 4.00622E+00
24
313
new kernel: 4.00907E+00
24
313
new kernel: 4.00452E+00
24
312
new kernel: 4.00812E+00
24
312
new kernel: 4.00418E+00
24
313
new kernel: 4.00176E+00
34
426
new kernel: 4.00047E+00
34
425
new kernel: 4.00638E+00
34
429
new kernel: 4.00081E+00
34
429
new kernel: 4.00125E+00
34
430
new kernel: 4.00609E+00
34
428
new kernel: 4.00086E+00
34
430
new kernel: 4.00909E+00
34
429
new kernel: 4.00349E+00
34
429
new kernel: 4.00033E+00
34
428
new kernel: 4.00657E+00
51
621
new kernel: 4.00598E+00
51
621
new kernel: 4.00614E+00
51
611
new kernel: 4.00265E+00
51
615
new kernel: 4.00636E+00
51
619
new kernel: 4.00280E+00
51
620
new kernel: 4.00431E+00
51
615
new kernel: 4.00186E+00
51
623
new kernel: 4.00587E+00
51
619
new kernel: 4.00140E+00
51
622
new kernel: 4.00062E+00
64
727
new kernel: 4.00033E+00
64
727
new kernel: 4.00433E+00
64
733
new kernel: 4.00461E+00
64
735
new kernel: 4.00417E+00
64
741
new kernel: 4.00194E+00
64
735
new kernel: 4.00077E+00
64
738
new kernel: 4.00253E+00
64
728
new kernel: 4.00534E+00
64
738
new kernel: 4.00467E+00
64
730
new kernel: 4.00433E+00
68
755
new kernel: 4.00084E+00
68
751
new kernel: 4.00199E+00
68
754
new kernel: 4.00141E+00
68
719
new kernel: 4.00317E+00
68
752
new kernel: 4.00200E+00
68
750
new kernel: 4.00114E+00
68
751
new kernel: 4.00200E+00
68
755
new kernel: 4.00047E+00
68
752
new kernel: 4.00067E+00
68
755
new kernel: 4.00076E+00
85
666
new kernel: 4.00082E+00
85
690
new kernel: 4.00479E+00
85
665
new kernel: 4.00433E+00
85
704
new kernel: 4.00527E+00
85
679
new kernel: 4.00314E+00
85
668
new kernel: 4.00527E+00
85
657
new kernel: 4.00187E+00
85
663
new kernel: 4.00600E+00
85
701
new kernel: 4.00390E+00
85
694
new kernel: 4.00219E+00
102
761
new kernel: 4.00489E+00
102
761
new kernel: 4.00023E+00
102
764
new kernel: 4.00240E+00
102
761
new kernel: 4.00017E+00
102
763
new kernel: 4.00173E+00
102
762
new kernel: 4.00280E+00
102
767
new kernel: 4.00152E+00
102
761
new kernel: 4.00050E+00
102
762
new kernel: 4.00487E+00
102
794
new kernel: 4.00163E+00
119
856
new kernel: 4.00305E+00
119
855
new kernel: 4.00456E+00
119
848
new kernel: 4.00171E+00
119
847
new kernel: 4.00595E+00
119
852
new kernel: 4.00360E+00
119
845
new kernel: 4.00330E+00
119
858
new kernel: 4.00273E+00
119
859
new kernel: 4.00548E+00
119
868
new kernel: 4.00390E+00
119
875
new kernel: 4.00411E+00
136
893
new kernel: 4.00032E+00
136
891
new kernel: 4.00123E+00
136
895
new kernel: 4.00298E+00
136
894
new kernel: 4.00327E+00
136
890
new kernel: 4.00016E+00
136
888
new kernel: 4.00194E+00
136
884
new kernel: 4.00136E+00
136
891
new kernel: 4.00201E+00
136
892
new kernel: 4.00319E+00
136
892
new kernel: 4.00113E+00
170
819
new kernel: 4.00174E+00
170
817
new kernel: 4.00125E+00
170
816
new kernel: 4.00104E+00
170
815
new kernel: 4.00150E+00
170
816
new kernel: 4.00092E+00
170
824
new kernel: 4.00301E+00
170
834
new kernel: 4.00462E+00
170
820
new kernel: 4.00196E+00
170
822
new kernel: 4.00119E+00
170
825
new kernel: 4.00185E+00
204
863
new kernel: 4.00222E+00
204
879
new kernel: 4.00053E+00
204
864
new kernel: 4.00266E+00
204
863
new kernel: 4.00372E+00
204
867
new kernel: 4.00263E+00
204
889
new kernel: 4.00006E+00
204
858
new kernel: 4.00277E+00
204
869
new kernel: 4.00336E+00
204
882
new kernel: 4.00156E+00
204
867
new kernel: 4.00085E+00
238
882
new kernel: 4.00284E+00
238
874
new kernel: 4.00217E+00
238
871
new kernel: 4.00049E+00
238
879
new kernel: 4.00305E+00
238
893
new kernel: 4.00408E+00
238
878
new kernel: 4.00264E+00
238
880
new kernel: 4.00213E+00
238
874
new kernel: 4.00398E+00
238
882
new kernel: 4.00063E+00
238
869
new kernel: 4.00128E+00
272
859
new kernel: 4.00272E+00
272
854
new kernel: 4.00019E+00
272
875
new kernel: 4.00311E+00
272
864
new kernel: 4.00149E+00
272
864
new kernel: 4.00411E+00
272
893
new kernel: 4.00215E+00
272
869
new kernel: 4.00140E+00
272
856
new kernel: 4.00251E+00
272
862
new kernel: 4.00397E+00
272
893
new kernel: 4.00283E+00
