1
30
new apply_diff: 2.04315E+00
1
30
new apply_diff: 2.04514E+00
1
30
new apply_diff: 2.04299E+00
1
30
new apply_diff: 2.04268E+00
1
30
new apply_diff: 2.04602E+00
1
30
new apply_diff: 2.04416E+00
1
30
new apply_diff: 2.04306E+00
1
30
new apply_diff: 2.04351E+00
1
30
new apply_diff: 2.04451E+00
1
30
new apply_diff: 2.05763E+00
2
24
new apply_diff: 2.05585E+00
2
24
new apply_diff: 2.03499E+00
2
24
new apply_diff: 2.03377E+00
2
24
new apply_diff: 2.07512E+00
2
25
new apply_diff: 2.05044E+00
2
24
new apply_diff: 2.03528E+00
2
25
new apply_diff: 2.04188E+00
2
24
new apply_diff: 2.01082E+00
2
24
new apply_diff: 2.05502E+00
2
25
new apply_diff: 2.03479E+00
4
35
new apply_diff: 2.05450E+00
4
34
new apply_diff: 2.01507E+00
4
36
new apply_diff: 2.05633E+00
4
35
new apply_diff: 2.00225E+00
4
35
new apply_diff: 2.05437E+00
4
35
new apply_diff: 2.00882E+00
4
34
new apply_diff: 2.03716E+00
4
35
new apply_diff: 2.05380E+00
4
34
new apply_diff: 2.01006E+00
4
36
new apply_diff: 2.04911E+00
9
58
new apply_diff: 2.00276E+00
9
57
new apply_diff: 2.00933E+00
9
57
new apply_diff: 2.01837E+00
9
59
new apply_diff: 2.01158E+00
9
57
new apply_diff: 2.00361E+00
9
58
new apply_diff: 2.01868E+00
9
59
new apply_diff: 2.01637E+00
9
57
new apply_diff: 2.03288E+00
9
58
new apply_diff: 2.00714E+00
9
58
new apply_diff: 2.02516E+00
16
85
new apply_diff: 2.01986E+00
16
84
new apply_diff: 2.00724E+00
16
84
new apply_diff: 2.00049E+00
16
81
new apply_diff: 2.01287E+00
16
85
new apply_diff: 2.01249E+00
16
86
new apply_diff: 2.00781E+00
16
83
new apply_diff: 2.01180E+00
16
84
new apply_diff: 2.00500E+00
16
81
new apply_diff: 2.00292E+00
16
83
new apply_diff: 2.00408E+00
18
93
new apply_diff: 2.00823E+00
18
92
new apply_diff: 2.01249E+00
18
93
new apply_diff: 2.00520E+00
18
93
new apply_diff: 2.00517E+00
18
93
new apply_diff: 2.01023E+00
18
93
new apply_diff: 2.02030E+00
18
93
new apply_diff: 2.00288E+00
18
92
new apply_diff: 2.01825E+00
18
89
new apply_diff: 2.00424E+00
18
91
new apply_diff: 2.00109E+00
25
113
new apply_diff: 2.01088E+00
25
110
new apply_diff: 2.00412E+00
25
112
new apply_diff: 2.00221E+00
25
116
new apply_diff: 2.00143E+00
25
110
new apply_diff: 2.00033E+00
25
111
new apply_diff: 2.01055E+00
25
113
new apply_diff: 2.01042E+00
25
111
new apply_diff: 2.01290E+00
25
113
new apply_diff: 2.01316E+00
25
113
new apply_diff: 2.01359E+00
36
145
new apply_diff: 2.00644E+00
36
146
new apply_diff: 2.00890E+00
36
144
new apply_diff: 2.00298E+00
36
146
new apply_diff: 2.00221E+00
36
147
new apply_diff: 2.00551E+00
36
147
new apply_diff: 2.01108E+00
36
146
new apply_diff: 2.00597E+00
36
147
new apply_diff: 2.00562E+00
36
147
new apply_diff: 2.00862E+00
36
149
new apply_diff: 2.01209E+00
45
159
new apply_diff: 2.01128E+00
45
159
new apply_diff: 2.00979E+00
45
158
new apply_diff: 2.00776E+00
45
161
new apply_diff: 2.00234E+00
45
158
new apply_diff: 2.00556E+00
45
162
new apply_diff: 2.01070E+00
45
157
new apply_diff: 2.00956E+00
45
161
new apply_diff: 2.00592E+00
45
155
new apply_diff: 2.01114E+00
45
158
new apply_diff: 2.00013E+00
54
181
new apply_diff: 2.00017E+00
54
183
new apply_diff: 2.00457E+00
54
179
new apply_diff: 2.00501E+00
54
181
new apply_diff: 2.00752E+00
54
178
new apply_diff: 2.00633E+00
54
179
new apply_diff: 2.00492E+00
54
181
new apply_diff: 2.00143E+00
54
183
new apply_diff: 2.00852E+00
54
180
new apply_diff: 2.00515E+00
54
184
new apply_diff: 2.00755E+00
60
188
new apply_diff: 2.00583E+00
60
189
new apply_diff: 2.00168E+00
60
188
new apply_diff: 2.00259E+00
60
188
new apply_diff: 2.00913E+00
60
186
new apply_diff: 2.00153E+00
60
187
new apply_diff: 2.00953E+00
60
188
new apply_diff: 2.01026E+00
60
186
new apply_diff: 2.00232E+00
60
187
new apply_diff: 2.00146E+00
60
188
new apply_diff: 2.00171E+00
64
189
new apply_diff: 2.00402E+00
64
189
new apply_diff: 2.00698E+00
64
191
new apply_diff: 2.00185E+00
64
189
new apply_diff: 2.00179E+00
64
189
new apply_diff: 2.00654E+00
64
191
new apply_diff: 2.00632E+00
64
190
new apply_diff: 2.00237E+00
64
188
new apply_diff: 2.00008E+00
64
189
new apply_diff: 2.00522E+00
64
192
new apply_diff: 2.00905E+00
72
202
new apply_diff: 2.00029E+00
72
202
new apply_diff: 2.00593E+00
72
199
new apply_diff: 2.00237E+00
72
203
new apply_diff: 2.00748E+00
72
199
new apply_diff: 2.00119E+00
72
198
new apply_diff: 2.00107E+00
72
200
new apply_diff: 2.00301E+00
72
202
new apply_diff: 2.00101E+00
72
201
new apply_diff: 2.00914E+00
72
201
new apply_diff: 2.00603E+00
