1
8
new apply_diff: 2.15000E+00
1
8
new apply_diff: 2.15000E+00
1
8
new apply_diff: 2.15000E+00
1
8
new apply_diff: 2.15000E+00
1
8
new apply_diff: 2.15000E+00
1
8
new apply_diff: 2.15000E+00
1
8
new apply_diff: 2.15000E+00
1
8
new apply_diff: 2.15000E+00
1
8
new apply_diff: 2.16000E+00
1
8
new apply_diff: 2.15000E+00
2
16
new apply_diff: 2.13000E+00
2
15
new apply_diff: 2.01000E+00
2
16
new apply_diff: 2.14000E+00
2
15
new apply_diff: 2.01000E+00
2
15
new apply_diff: 2.01000E+00
2
15
new apply_diff: 2.01000E+00
2
15
new apply_diff: 2.01000E+00
2
15
new apply_diff: 2.02000E+00
2
15
new apply_diff: 2.01000E+00
2
15
new apply_diff: 2.01000E+00
4
30
new apply_diff: 2.03000E+00
4
30
new apply_diff: 2.04000E+00
4
30
new apply_diff: 2.04000E+00
4
30
new apply_diff: 2.03000E+00
4
30
new apply_diff: 2.03000E+00
4
30
new apply_diff: 2.03000E+00
4
30
new apply_diff: 2.03000E+00
4
30
new apply_diff: 2.03000E+00
4
30
new apply_diff: 2.03000E+00
4
30
new apply_diff: 2.03000E+00
8
58
new apply_diff: 2.03000E+00
8
57
new apply_diff: 2.03000E+00
8
57
new apply_diff: 2.03000E+00
8
55
new apply_diff: 2.01000E+00
8
56
new apply_diff: 2.01000E+00
8
56
new apply_diff: 2.03000E+00
8
56
new apply_diff: 2.02000E+00
8
56
new apply_diff: 2.01000E+00
8
57
new apply_diff: 2.01000E+00
8
57
new apply_diff: 2.04000E+00
10
69
new apply_diff: 2.02000E+00
10
69
new apply_diff: 2.02000E+00
10
69
new apply_diff: 2.03000E+00
10
69
new apply_diff: 2.02000E+00
10
69
new apply_diff: 2.02000E+00
10
69
new apply_diff: 2.02000E+00
10
70
new apply_diff: 2.02000E+00
10
69
new apply_diff: 2.02000E+00
10
70
new apply_diff: 2.03000E+00
10
69
new apply_diff: 2.01000E+00
15
101
new apply_diff: 2.01000E+00
15
106
new apply_diff: 2.02000E+00
15
102
new apply_diff: 2.02000E+00
15
102
new apply_diff: 2.02000E+00
15
102
new apply_diff: 2.02000E+00
15
102
new apply_diff: 2.02000E+00
15
101
new apply_diff: 2.01000E+00
15
102
new apply_diff: 2.01000E+00
15
101
new apply_diff: 2.02000E+00
15
101
new apply_diff: 2.01000E+00
20
140
new apply_diff: 2.01000E+00
20
140
new apply_diff: 2.01000E+00
20
140
new apply_diff: 2.02000E+00
20
123
new apply_diff: 2.02000E+00
20
141
new apply_diff: 2.02000E+00
20
140
new apply_diff: 2.01000E+00
20
140
new apply_diff: 2.01000E+00
20
140
new apply_diff: 2.01000E+00
20
139
new apply_diff: 2.01000E+00
20
140
new apply_diff: 2.01000E+00
30
198
new apply_diff: 2.01000E+00
30
198
new apply_diff: 2.01000E+00
30
200
new apply_diff: 2.01000E+00
30
198
new apply_diff: 2.01000E+00
30
199
new apply_diff: 2.01000E+00
30
199
new apply_diff: 2.01000E+00
30
199
new apply_diff: 2.01000E+00
30
199
new apply_diff: 2.01000E+00
30
197
new apply_diff: 2.01000E+00
30
199
new apply_diff: 2.01000E+00
40
257
new apply_diff: 2.01000E+00
40
255
new apply_diff: 2.01000E+00
40
254
new apply_diff: 2.01000E+00
40
256
new apply_diff: 2.01000E+00
40
257
new apply_diff: 2.01000E+00
40
257
new apply_diff: 2.01000E+00
40
257
new apply_diff: 2.01000E+00
40
255
new apply_diff: 2.01000E+00
40
257
new apply_diff: 2.01000E+00
40
256
new apply_diff: 2.01000E+00
60
243
new apply_diff: 2.01000E+00
60
246
new apply_diff: 2.01000E+00
60
246
new apply_diff: 2.01000E+00
60
245
new apply_diff: 2.01000E+00
60
245
new apply_diff: 2.01000E+00
60
241
new apply_diff: 2.01000E+00
60
245
new apply_diff: 2.01000E+00
60
243
new apply_diff: 2.01000E+00
60
242
new apply_diff: 2.01000E+00
60
245
new apply_diff: 2.01000E+00
80
305
new apply_diff: 2.01000E+00
80
304
new apply_diff: 2.01000E+00
80
306
new apply_diff: 2.01000E+00
80
305
new apply_diff: 2.01000E+00
80
297
new apply_diff: 2.01000E+00
80
302
new apply_diff: 2.01000E+00
80
304
new apply_diff: 2.01000E+00
80
306
new apply_diff: 2.01000E+00
80
299
new apply_diff: 2.01000E+00
80
298
new apply_diff: 2.01000E+00
100
281
new apply_diff: 2.01000E+00
100
287
new apply_diff: 2.01000E+00
100
288
new apply_diff: 2.01000E+00
100
288
new apply_diff: 2.01000E+00
100
293
new apply_diff: 2.01000E+00
100
288
new apply_diff: 2.01000E+00
100
282
new apply_diff: 2.01000E+00
100
259
new apply_diff: 2.01000E+00
100
282
new apply_diff: 2.01000E+00
100
278
new apply_diff: 2.01000E+00
120
331
new apply_diff: 2.01000E+00
120
327
new apply_diff: 2.01000E+00
120
332
new apply_diff: 2.01000E+00
120
328
new apply_diff: 2.01000E+00
120
325
new apply_diff: 2.01000E+00
120
328
new apply_diff: 2.01000E+00
120
330
new apply_diff: 2.01000E+00
120
325
new apply_diff: 2.01000E+00
120
329
new apply_diff: 2.01000E+00
120
328
new apply_diff: 2.01000E+00
140
338
new apply_diff: 2.01000E+00
140
333
new apply_diff: 2.01000E+00
140
327
new apply_diff: 2.01000E+00
140
336
new apply_diff: 2.01000E+00
140
333
new apply_diff: 2.01000E+00
140
334
new apply_diff: 2.01000E+00
140
331
new apply_diff: 2.01000E+00
140
333
new apply_diff: 2.01000E+00
140
337
new apply_diff: 2.01000E+00
140
335
new apply_diff: 2.01000E+00
160
359
new apply_diff: 2.01000E+00
160
361
new apply_diff: 2.01000E+00
160
371
new apply_diff: 2.01000E+00
160
353
new apply_diff: 2.01000E+00
160
366
new apply_diff: 2.01000E+00
160
357
new apply_diff: 2.01000E+00
160
359
new apply_diff: 2.01000E+00
160
368
new apply_diff: 2.01000E+00
160
338
new apply_diff: 2.01000E+00
160
339
new apply_diff: 2.01000E+00
