448
new apply_diff: 2.00165E+00
448
new apply_diff: 2.00376E+00
450
new apply_diff: 2.00214E+00
448
new apply_diff: 2.00020E+00
450
new apply_diff: 2.00149E+00
450
new apply_diff: 2.00224E+00
446
new apply_diff: 2.00026E+00
450
new apply_diff: 2.00168E+00
448
new apply_diff: 2.00401E+00
450
new apply_diff: 2.00246E+00
